{"reviews":[{"review":"I just started reading Charles Todd's Bess Crawford series and so far they all have been great books. This one did not disappoint!"}],"category":"Book"}
{"reviews":[{"review":"Now this is a great app from amazon. I 'm just learning to navigate all the little features in this app but for the most part, quite simple to use and the features are very helpful when making notes or highlighting scripture plus the different highlight colors make it easy to seperate your notes or points of interest. Love it and it 's all right there for ease and convienence. Love it. Thanks amazon for making this and bringing me closer to God every time I use it."}],"category":"Apps_for_Android"}
{"reviews":[{"review":"I had \"won\" a similar product at a family reunion and used it for many things. Most recently, I used it to tie my grape vines to supporting stakes. When I ran out, I couldn't find them locally and was so happy to find them available through Amazon.The wire tie makes these strong and the plastic coating makes them good for indoor or outdoor use. So much better than reusing the paper covered ties that come on grocery store products. Highly recommended."},{"review":"On the plus side, was fairly easy to put together and doesn't take up too much storage space if you remove the bag\/hang it on a wall.  But as other reviewers have said, you have to adjust the height and hold\/push the sweeper at just the right angle to get it to pick up.  Once you get the hang of it, though, you're only going to get a small area done at a time before the bag fills up.  In the end, it took just as long to clear an area as it does to use a rake because of all the stopping to empty the bag. I didn't have much luck removing the bag and emptying that way (into a paper lawn bag...), so basically you have to take all the leaves out by hand. Would only recommend if you really can't handle the twisting and turning involved in raking...and have no problem bending and picking up piles of leaves."},{"review":"I purchased this trap when I was battling groundhogs who saw my garden as a buffet.  I had originally purchased 2 traps from Tractor Supply, but they weren't living up.  The traps were made poorly and the groundhogs were able to pound the cage until the wire came loose and they were able to escape.I did some research and Havahart was getting a high rating.  I purchased this trap and I didn't go wrong.  Nothing is escaping this baby.  It's strong enough to hold the groundhogs and the door is easy to open when you release them.  I will be replacing another Tractor Supply cage this summer with this Havahart.  I highly recommend it."},{"review":"I have always loved Weber and this is no different.Best material for grilling. easy setup,easy cleanup. Cant say enough about this! LOVE it!"},{"review":"Just what I  expected, it works great and is the perfect size for my husband and myself to use. Thank you"},{"review":"I actually do not own the current model of the Weber Genesis grill--mine is ten years old and still going strong.  I live in the Pacific Northwest and I use my grill all year around--rain, snow or shine.  I only found out recently that my oven broiler (which was new three years ago) did not work, because I use my grill instead of the oven.  These grills are made to last.  I have never grilled anything that was not done perfectly.  Even  though it is nice to have something new and shiny, I cannot justify replacing my Genesis 4000 as long as it is working.  I started my grilling experience with the Weber kettle grill and would still be using that if I had not received my gas grill for my birthday 10 years ago.  I passed the kettle down to my nephew and he is still using it.  You cannot go wrong with this product. Is is one of the few things manufactured today that is truly of high quality--made to last."},{"review":"I have used this brand for a long time now and the Hummingbirds will drain a 2 cup feeder in less than 2 weeks.  They love it!"},{"review":"I was a little worried after reading about so many different chain sizes for my Homelite saw. This one fits well and seems to be at least as good as the original."},{"review":"I knew I had a mouse in the basement and wanted to use a humane way to catch it.  I used the trap with just a little peanut butter as some reviewers have advised, and for a couple of weeks absolutely nothing happened (even as the fresh evidence of the mouse continued to mount all around it) to the point that I was ready to dismiss it as ineffective;  then one day I happened to glance at the trap and saw it had &#34;sprung&#34;.  No movement from inside, but it felt a bit heavier than it should have if empty, so I steeled myself for the possibility of finding a starved-to-death mouse carcass inside...or having a live mouse jump out at me...okay, actually I had my son open the trap, well away from the house...apparently the mouse was alive and well, and is now living somewhere else.  Happy ending.One minor criticism--it would have been helpful if there had been a way to see inside the trap and know for sure if it contained a mouse, and what the mouse's condition might be.  I don't think I'd have been nervous about opening the trap if I'd had some way of knowing what to expect, and it doesn't seem as though it would be difficult to make a transparent window in the side of the trap for that purpose."},{"review":"Bought last summer.  Researching reel mowers, this is the only one I could find that would adjust the cut height.  (Most reel mowers do not adjust AND cut the grass very short, which is bad for each the lawn and the environment-excessive watering required)  I have a small lawn, in town.  50'x60'.  This mower is easy to use\/operate (little effort).  Never worry about engine maintenance or having gas or using gas (environment).  Also, of course, it is incredibly quiet.  These mowers do struggle with tall grass or weeds.  If you let the lawn go, it will not cut tall grass.  I enjoy my mower a great deal.  I let the grass get too long on vacation last year and borrowed a gas mower when I returned.  I feel great about the environment and myself every time I use it."},{"review":"The birds ate all of our blueberries last year, so this year we decided to invest in some netting as a repellent. It is working like a charm. I'm going out to pick the ripe berries tonight."},{"review":"I have owned the Flowtron BK-15D for about nine months now. I have it hanging at the corner ceiling of my room. The power plug of the bug lamp is connected to a 24 hour digital programmable timer (Intermatic DT121) set to automatically turn on the bug lamp at night, then turn off in the morning. Underneath the bug lamp is a litter tray with a mixture of baking soda and beach sand. I have had no problems with the bug lamp. There are times when I am woken up from sleep because of bugs being zapped, but after a while, you can get used to that zapping sound. Last year, prior to owning the bug lamp, I have had spider bites, gnat infestations, wandering moths, and mosquitoes in my room. With the Flowtron BK-15D, my room and bed is now bug-free. No more expenses toward bug sprays and rash ointments. As far as cleaning and maintaining the bug lamp, I have had no need to do this as I have set up a litter tray lined with a mixture of fine sand and baking soda, which I periodically empty and refill. In the future, I would probably spray the interior of the lamp housing with compressed air and brush off dead bugs stuck on the metal casing, but other than that, the lamp is extremely low maintenance. I would recommend this product to people who are in my situation: cost effective mosquito control for a private space or room."},{"review":"Good price. Good product. I had read some poor reviews of competitive products before purchasing this one, so I was a little concerned. But the Flowtron turned out to be exactly what I was looking for."},{"review":"Never used a manual lawnmower. Need to adjust heigth of back roller. If you have a small area then its fine. You will need a trimmer though for edges and difficult areas. May have to go over the area twice to make the cut even"},{"review":"I purchased the Leaf Hog last year and was very impressed with it.  It helped reduce the time to take care of leaves from about 80 hours of work to about 35 hours and my back didn't hurt nearly as much last year.  This year I tried out the Leaf Collection system as much of the time I spent last year was dumping out the leaf collection bag to mulch more until the garbage can was full.  On this go around I had 4 - 55 gallon garbage cans and started mulching the big piles I had.  I would just mulch until a can was full, move the fabric over to the next can and continue.  This sped up my time to finishing in under 20 hours this year.I would highly recommend it if you need to mulch more than a single bag full.  It saved a ton of time for me and I have no doubt it can do the same for you."},{"review":"I was excited to ditch my $1.99, two-prong corn holders for this corkscrew design but regret it. The corkscrew design twists into the end of the corn. I thought this was a genius idea but the problem is that the prong continues to twist when in the corn. Since it doesn't have a second prong to prevent the pivoting, the corn will flip and slip all around the prong, which is super annoying when trying to butter and eat. The storage case and grips are nice but I think the design itself is problematic. I'll be ditching these and going back to a two-prong approach."},{"review":"This product is a typical, yet usable, B&D design. The handle-mounted power cord lock is somewhat difficult to use, but works fairly well after the cord is \"locked\" into a type of holder that could be improved. The product does what it is intended to do, no more, no less.  It is a powerful vacuum and works very well with high amounts of dry leaf material.  The attached bagger is somewhat cumbersome to use and empty, produces copious amounts of leaf-dust, but overall, this product works quite well in vacuuming lots of leaf and yard material."},{"review":"This tool works very well for cutting brush and woody stemmed weeds up to about 2&#34;. It will work for larger brush and small trees with multiple swings but I find it easier to use a bow saw for the occasional larger plants I encounter. Note that if you need to cut a lot of larger brush a brush hook would be better than this ditch bank blade as the brush hook blade is thicker and heavier.The tool needs to be sharpened right out of the package to perform best. This removes the paint and any nicks and burrs from the factory grinding as well shipping and handling nicks. I resharpen the blades and spray them with WD-40 after each use so it remains rust free and is ready to go for the next session of cutting brush. Also, I suggest installing either lock washers or nyloc nuts on the bolts to keep them tight in use. Even with that, check them after each use to make sure they are tight--it seems that initially the ash handle compresses a bit and the metal side plates need time to seat fully into the ash.This tool has been a huge improvement over my large lopping shears and machette for clearing brush on a new rail trail.Great tool if used appropriately. Per the package it can also be used to ward off zombies and the undead but I've not had that need to date."},{"review":"This hose is supposed to be flexible.  Its hard, heavy and unwieldy.  I don't know if it kinks or not, because I could tell, as soon as I removed it from the box, that I would have to return it.  If you want a lightweight, soft hose (and I know they exist because I have one), do not buy this thing."},{"review":"For the most part this works pretty good. I bought the John Deere and this one, they both work the same. This is the first time I am waterin my lawn, so to me it seems like they use a lot of water, especially in narrow areas. They are better made for large areas, for narrow corridors, use some other system."},{"review":"The metal base with the hose attachments is very poorly designed and made. As the previous reviewer pointed out, it leaks badly and just pops off. There is no way to fix or tighten this junction and when the plastic wears a bit the hose just falls off and sprinkler is useless.AVOID ANY GILMOUR Sprinklers with this spike base. The sprinkler heads themselves work fairly well."},{"review":"This is a very nice spreader.  It feels very solid and the pneumatic tires give it great maneuverability and handling over bumps.  The control arm is solid metal, not a cable, which gives you precise control and will last a long time.  The settings take some experimentation with your various products to get it right, but that is true of any spreader.  It has good distribution... probably flings material a little farther on the right side than the left, but it is far more even than my crappy Edgeguard ever was."},{"review":"This was a gift for my other husband.  He's making us things from it all the time and we love the food.  Directions are simple, easy to read and interpret, and fun to make.  We all love different kinds of cuisine and Raichlen provides recipes from everywhere along the barbecue trail as he calls it. Get it and just open a page.  Have at it.  You'll love the food and it has provided us with an insight into the culture that produced it. It's all about broadening horizons.  Yum!!"}],"category":"Patio_Lawn_and_Garde"}
